<?xml version="1.0" encoding="utf-8"?>
<!-- Generator: Adobe Illustrator 15.0.0, SVG Export Plug-In . SVG Version: 6.00 Build 0)  -->
<!DOCTYPE svg PUBLIC "-//W3C//DTD SVG 1.1//EN" "http://www.w3.org/Graphics/SVG/1.1/DTD/svg11.dtd">
<svg version="1.1" id="Capa_1" xmlns="http://www.w3.org/2000/svg" xmlns:xlink="http://www.w3.org/1999/xlink" x="0px" y="0px"
	 width="100px" height="100px" viewBox="0 0 100 100" enable-background="new 0 0 100 100" xml:space="preserve">
<g id="Capa_2" display="none">
</g>
<g>
	<g>
		<g>
			<path d="M57.514,61.838H42.295c-1.225,0-2.218,0.931-2.218,2.081v15.128c0,1.15,0.993,2.083,2.218,2.083h15.218
				c1.225,0,2.216-0.932,2.216-2.083V63.919C59.729,62.769,58.736,61.838,57.514,61.838z M55.297,76.967H44.511V66.002h10.786
				V76.967z"/>
		</g>
	</g>
	<g>
		<g>
			<path d="M49.905,29.499c-11.204,0-20.317,8.56-20.317,19.083c0,7.548,4.753,14.399,12.107,17.451l1.792-3.808
				c-5.75-2.389-9.466-7.743-9.466-13.643c0-8.227,7.126-14.919,15.885-14.919c8.757,0,15.881,6.693,15.881,14.919
				c0,5.923-3.744,11.306-9.539,13.711l1.793,3.809c7.398-3.072,12.179-9.949,12.179-17.52
				C70.219,38.058,61.106,29.499,49.905,29.499z"/>
		</g>
	</g>
	<g>
		<g>
			<rect x="42.295" y="69.471" width="15.218" height="4.164"/>
		</g>
	</g>
	<g>
		<g>
			<rect x="47.983" y="17.77" width="4.432" height="8.674"/>
		</g>
	</g>
	<g>
		<g>
			<rect x="73.248" y="46.015" width="9.309" height="4.164"/>
		</g>
	</g>
	<g>
		<g>
			<rect x="17.842" y="46.015" width="9.309" height="4.164"/>
		</g>
	</g>
	<g>
		<g>
			<polygon points="25.805,28.124 28.938,25.18 35.438,31.288 32.305,34.231 			"/>
		</g>
	</g>
	<g>
		<g>
			<polygon points="64.959,31.291 71.458,25.184 74.592,28.127 68.093,34.234 			"/>
		</g>
	</g>
	<g>
	</g>
	<g>
	</g>
	<g>
	</g>
	<g>
	</g>
	<g>
	</g>
	<g>
	</g>
	<g>
	</g>
	<g>
	</g>
	<g>
	</g>
	<g>
	</g>
	<g>
	</g>
	<g>
	</g>
	<g>
	</g>
	<g>
	</g>
	<g>
	</g>
</g>
</svg>
