<?xml version="1.0" encoding="utf-8"?>
<!-- Generator: Adobe Illustrator 15.0.0, SVG Export Plug-In . SVG Version: 6.00 Build 0)  -->
<!DOCTYPE svg PUBLIC "-//W3C//DTD SVG 1.1//EN" "http://www.w3.org/Graphics/SVG/1.1/DTD/svg11.dtd">
<svg version="1.1" id="Capa_1" xmlns="http://www.w3.org/2000/svg" xmlns:xlink="http://www.w3.org/1999/xlink" x="0px" y="0px"
	 width="100px" height="100px" viewBox="0 0 100 100" enable-background="new 0 0 100 100" xml:space="preserve">
<g id="Capa_2" display="none">
</g>
<g>
	<path d="M66.788,69.467c0,2.665-2.169,4.833-4.834,4.833s-4.834-2.168-4.834-4.833c0-1.918,1.122-3.577,2.743-4.358V38.895
		c0-1.155,0.937-2.09,2.091-2.09c1.155,0,2.091,0.935,2.091,2.09v26.213C65.667,65.89,66.788,67.549,66.788,69.467z M30.73,23.348
		c0,3.169-2.579,5.748-5.748,5.748c-3.171,0-5.75-2.579-5.75-5.748s2.579-5.748,5.75-5.748C28.151,17.6,30.73,20.179,30.73,23.348z
		 M26.548,23.348c0-0.865-0.703-1.568-1.566-1.568c-0.865,0-1.568,0.703-1.568,1.568s0.703,1.568,1.568,1.568
		C25.845,24.916,26.548,24.213,26.548,23.348z M46.171,40.404c-0.89-0.735-2.208-0.608-2.942,0.281
		c-2.832,3.434-8.45,1.434-8.45-3.032v-6.14c0-4.461,5.614-6.468,8.45-3.032c0.735,0.891,2.052,1.016,2.942,0.282
		c0.891-0.735,1.016-2.052,0.282-2.943c-1.708-2.068-4.226-3.255-6.905-3.255c-4.935,0-8.95,4.014-8.95,8.948v6.14
		c0,4.935,4.015,8.95,8.95,8.95c2.681,0,5.197-1.187,6.905-3.256C47.188,42.456,47.062,41.138,46.171,40.404z M80.768,27.006
		c0,1.155-0.937,2.09-2.091,2.09h-7.97v8.885h5.357c1.154,0,2.089,0.935,2.089,2.089c0,1.155-0.935,2.091-2.089,2.091h-5.357v8.884
		h2.743c1.155,0,2.091,0.936,2.091,2.091c0,1.154-0.936,2.091-2.091,2.091h-2.743v4.717c2.67,2.446,4.182,5.861,4.182,9.523
		c0,7.131-5.803,12.934-12.935,12.934S49.02,76.598,49.02,69.467c0-3.662,1.512-7.077,4.181-9.523v-33.59
		c0-4.827,3.927-8.753,8.753-8.753c4.338,0,7.945,3.17,8.634,7.316h8.089C79.831,24.916,80.768,25.852,80.768,27.006z
		 M70.707,69.467c0-2.718-1.229-5.235-3.375-6.906c-0.509-0.396-0.806-1.005-0.806-1.648V26.353c0-2.521-2.051-4.573-4.572-4.573
		s-4.572,2.051-4.572,4.573v34.559c0,0.645-0.298,1.252-0.806,1.648c-2.146,1.671-3.375,4.188-3.375,6.906
		c0,4.826,3.927,8.753,8.753,8.753S70.707,74.293,70.707,69.467z"/>
</g>
</svg>
