<?xml version="1.0" encoding="utf-8"?>
<!-- Generator: Adobe Illustrator 15.0.0, SVG Export Plug-In . SVG Version: 6.00 Build 0)  -->
<!DOCTYPE svg PUBLIC "-//W3C//DTD SVG 1.1//EN" "http://www.w3.org/Graphics/SVG/1.1/DTD/svg11.dtd">
<svg version="1.1" id="Capa_1" xmlns="http://www.w3.org/2000/svg" xmlns:xlink="http://www.w3.org/1999/xlink" x="0px" y="0px"
	 width="100px" height="100px" viewBox="0 0 100 100" enable-background="new 0 0 100 100" xml:space="preserve">
<g id="Capa_2" display="none">
</g>
<g>
	<path id="XMLID_3_" d="M62.615,44.909c1.75-0.614,3.582-0.324,5.546,0.108c1.295,0.285,2.636,0.581,4.139,0.581
		c2.013,0,3.896-0.551,5.759-1.684c2.872-1.746,4.837-4.87,5.256-8.356c0.479-3.982-1.014-7.934-4.203-11.123
		c-3.166-3.166-7.392-4.909-11.899-4.909c-4.602,0-8.938,1.805-12.216,5.081c-4.096,4.096-6.76,10.626-6.806,16.616
		c-0.976-0.71-1.838-1.579-2.282-2.839c-0.686-1.949-0.317-3.616,0.108-5.545c0.583-2.644,1.309-5.934-1.102-9.899
		c-2.004-3.293-5.755-5.34-9.79-5.34c-3.481,0-6.922,1.522-9.689,4.288c-6.602,6.604-6.522,17.422,0.174,24.116
		c4.042,4.043,10.684,6.765,16.597,6.832c-0.707,0.966-1.571,1.814-2.821,2.255c-1.747,0.616-3.58,0.328-5.546-0.107
		c-1.295-0.284-2.635-0.581-4.14-0.581c-2.011,0-3.895,0.551-5.758,1.683c-2.872,1.747-4.836,4.871-5.256,8.356
		c-0.478,3.984,1.015,7.936,4.204,11.124c3.165,3.166,7.392,4.908,11.9,4.908c4.6,0,8.938-1.805,12.216-5.081
		c4.095-4.096,6.76-10.626,6.806-16.615c0.975,0.709,1.837,1.578,2.28,2.838c0.687,1.948,0.319,3.615-0.106,5.546
		c-0.584,2.643-1.309,5.934,1.103,9.898c2.002,3.294,5.754,5.341,9.79,5.341c3.482,0,6.922-1.523,9.688-4.288
		c6.601-6.602,6.522-17.42-0.174-24.116c-4.042-4.043-10.684-6.766-16.597-6.832C60.501,46.199,61.365,45.35,62.615,44.909z
		 M53.766,52.766c-1.477,1.477-4.054,1.477-5.531,0c-1.525-1.525-1.525-4.006,0-5.531c0.738-0.738,1.72-1.145,2.765-1.145
		s2.027,0.407,2.766,1.145C55.289,48.76,55.289,51.24,53.766,52.766z"/>
	<g>
	</g>
	<g>
	</g>
	<g>
	</g>
	<g>
	</g>
	<g>
	</g>
	<g>
	</g>
	<g>
	</g>
	<g>
	</g>
	<g>
	</g>
	<g>
	</g>
	<g>
	</g>
	<g>
	</g>
	<g>
	</g>
	<g>
	</g>
	<g>
	</g>
</g>
</svg>
