<?xml version="1.0" encoding="utf-8"?>
<!-- Generator: Adobe Illustrator 15.0.0, SVG Export Plug-In . SVG Version: 6.00 Build 0)  -->
<!DOCTYPE svg PUBLIC "-//W3C//DTD SVG 1.1//EN" "http://www.w3.org/Graphics/SVG/1.1/DTD/svg11.dtd">
<svg version="1.1" id="Capa_1" xmlns="http://www.w3.org/2000/svg" xmlns:xlink="http://www.w3.org/1999/xlink" x="0px" y="0px"
	 width="100px" height="100px" viewBox="0 0 100 100" enable-background="new 0 0 100 100" xml:space="preserve">
<g id="Capa_2" display="none">
</g>
<g>
	<g>
		<path d="M56.08,71.415H43.92c-1.045,0-1.892,0.848-1.892,1.892c0,1.046,0.847,1.894,1.892,1.894h12.16
			c1.046,0,1.893-0.848,1.893-1.894C57.973,72.263,57.126,71.415,56.08,71.415z"/>
		<path d="M55.321,59.739c0.397-0.798,0.622-1.695,0.622-2.647c0-3.282-2.66-5.943-5.943-5.943c-0.952,0-1.85,0.224-2.647,0.622
			l-8.914-8.913c-0.738-0.739-1.937-0.739-2.676,0c-0.738,0.738-0.738,1.936,0,2.675l8.914,8.913
			c-0.397,0.797-0.621,1.695-0.621,2.646c0,3.283,2.661,5.944,5.944,5.944c0.951,0,1.849-0.224,2.646-0.62l2.097,2.097
			c0.739,0.738,1.938,0.738,2.677,0c0.738-0.74,0.739-1.938,0-2.677L55.321,59.739z"/>
		<path d="M50,24.8c-17.807,0-32.293,14.487-32.293,32.294c0,5.676,1.497,11.259,4.328,16.148c0.523,0.904,1.679,1.213,2.583,0.69
			c0,0,5.267-3.04,5.267-3.04c0.905-0.521,1.215-1.679,0.693-2.584c-0.522-0.906-1.68-1.216-2.584-0.692l-3.574,2.062
			c-1.642-3.332-2.614-6.971-2.861-10.693h4.123c1.045,0,1.892-0.848,1.892-1.892c0-1.046-0.847-1.892-1.892-1.892h-4.124
			c0.251-3.816,1.256-7.429,2.867-10.691l3.569,2.061c0.905,0.523,2.062,0.212,2.584-0.693c0.522-0.905,0.212-2.062-0.692-2.585
			l-3.564-2.058c2.075-3.088,4.736-5.75,7.824-7.824l2.058,3.563c0.522,0.906,1.68,1.216,2.584,0.693s1.215-1.68,0.693-2.585
			l-2.061-3.568c3.262-1.611,6.875-2.615,10.69-2.867v4.124c0,1.045,0.847,1.892,1.892,1.892s1.892-0.847,1.892-1.892v-4.124
			c3.815,0.251,7.429,1.256,10.69,2.867l-2.06,3.568c-0.523,0.905-0.213,2.062,0.691,2.585c0.905,0.523,2.063,0.213,2.585-0.693
			l2.058-3.563c3.088,2.074,5.75,4.736,7.824,7.824l-3.564,2.058c-0.905,0.523-1.215,1.68-0.692,2.585
			c0.522,0.905,1.68,1.215,2.585,0.692l3.568-2.06c1.611,3.262,2.616,6.875,2.868,10.691h-4.124c-1.045,0-1.893,0.846-1.893,1.892
			c0,1.044,0.848,1.892,1.893,1.892h4.123c-0.248,3.723-1.22,7.361-2.862,10.693l-3.573-2.062c-0.905-0.523-2.062-0.214-2.585,0.692
			c-0.522,0.903-0.213,2.062,0.692,2.584l5.267,3.04c0.904,0.521,2.06,0.214,2.583-0.69c2.831-4.89,4.328-10.473,4.328-16.148
			C82.294,39.287,67.807,24.8,50,24.8z"/>
	</g>
</g>
</svg>
